<svg width="982" height="915" viewBox="0 0 982 915" fill="none" xmlns="http://www.w3.org/2000/svg">
<g filter="url(#filter0_dd_59_523)">
<path d="M372.703 560.008C312.172 499.477 312.172 401.336 372.703 340.805V340.805L591.906 560.008V560.008C531.375 620.539 433.234 620.539 372.703 560.008V560.008Z" fill="#512DA8"/>
</g>
<g filter="url(#filter1_dd_59_523)">
<path d="M372.703 340.602V340.602C433.234 280.07 531.375 280.07 591.906 340.602V340.602C652.437 401.133 652.437 499.273 591.906 559.805V559.805L372.703 340.602Z" fill="#7C4DFF"/>
</g>
<g filter="url(#filter2_dd_59_523)">
<path d="M550.279 880.614V880.614C491.701 822.036 491.701 727.061 550.279 668.482L769.482 449.279L790.696 470.492C837.558 517.355 837.558 593.335 790.696 640.198L550.279 880.614Z" fill="#512DA8"/>
</g>
<g filter="url(#filter3_dd_59_523)">
<path d="M882.62 350.34C937.293 405.014 937.293 493.657 882.62 548.33L875.549 555.401L550.279 230.132C491.701 171.553 491.701 76.5786 550.279 18L882.62 350.34Z" fill="#7C4DFF"/>
<path d="M791.001 639.699L875.853 554.846L791.007 470C837.863 516.864 837.861 592.839 791.001 639.699Z" fill="#7C4DFF"/>
</g>
<g filter="url(#filter4_dd_59_523)">
<path d="M431.335 18V18C489.914 76.5786 489.914 171.553 431.335 230.132L212.132 449.335L190.919 428.122C144.056 381.259 144.056 305.279 190.919 258.416L431.335 18Z" fill="#512DA8"/>
</g>
<g filter="url(#filter5_dd_59_523)">
<path d="M98.995 548.274C44.3216 493.601 44.3216 404.958 98.995 350.284L106.066 343.213L431.335 668.482C489.914 727.061 489.914 822.036 431.335 880.614L98.995 548.274Z" fill="#7C4DFF"/>
<path d="M190.614 258.915L105.761 343.768L190.608 428.614C143.751 381.751 143.753 305.776 190.614 258.915Z" fill="#7C4DFF"/>
</g>
<defs>
<filter id="filter0_dd_59_523" x="311.305" y="328.805" width="296.602" height="296.602" filterUnits="userSpaceOnUse" color-interpolation-filters="sRGB">
<feFlood flood-opacity="0" result="BackgroundImageFix"/>
<feColorMatrix in="SourceAlpha" type="matrix" values="0 0 0 0 0 0 0 0 0 0 0 0 0 0 0 0 0 0 127 0" result="hardAlpha"/>
<feMorphology radius="4" operator="dilate" in="SourceAlpha" result="effect1_dropShadow_59_523"/>
<feOffset dy="4"/>
<feGaussianBlur stdDeviation="6"/>
<feComposite in2="hardAlpha" operator="out"/>
<feColorMatrix type="matrix" values="0 0 0 0 0 0 0 0 0 0 0 0 0 0 0 0 0 0 0.3 0"/>
<feBlend mode="normal" in2="BackgroundImageFix" result="effect1_dropShadow_59_523"/>
<feColorMatrix in="SourceAlpha" type="matrix" values="0 0 0 0 0 0 0 0 0 0 0 0 0 0 0 0 0 0 127 0" result="hardAlpha"/>
<feOffset dy="4"/>
<feGaussianBlur stdDeviation="4"/>
<feComposite in2="hardAlpha" operator="out"/>
<feColorMatrix type="matrix" values="0 0 0 0 0 0 0 0 0 0 0 0 0 0 0 0 0 0 0.6 0"/>
<feBlend mode="normal" in2="effect1_dropShadow_59_523" result="effect2_dropShadow_59_523"/>
<feBlend mode="normal" in="SourceGraphic" in2="effect2_dropShadow_59_523" result="shape"/>
</filter>
<filter id="filter1_dd_59_523" x="346.703" y="277.203" width="316.602" height="316.602" filterUnits="userSpaceOnUse" color-interpolation-filters="sRGB">
<feFlood flood-opacity="0" result="BackgroundImageFix"/>
<feColorMatrix in="SourceAlpha" type="matrix" values="0 0 0 0 0 0 0 0 0 0 0 0 0 0 0 0 0 0 127 0" result="hardAlpha"/>
<feOffset dy="4"/>
<feGaussianBlur stdDeviation="4"/>
<feComposite in2="hardAlpha" operator="out"/>
<feColorMatrix type="matrix" values="0 0 0 0 0 0 0 0 0 0 0 0 0 0 0 0 0 0 0.6 0"/>
<feBlend mode="normal" in2="BackgroundImageFix" result="effect1_dropShadow_59_523"/>
<feColorMatrix in="SourceAlpha" type="matrix" values="0 0 0 0 0 0 0 0 0 0 0 0 0 0 0 0 0 0 127 0" result="hardAlpha"/>
<feMorphology radius="2" operator="dilate" in="SourceAlpha" result="effect2_dropShadow_59_523"/>
<feOffset dy="8"/>
<feGaussianBlur stdDeviation="12"/>
<feComposite in2="hardAlpha" operator="out"/>
<feColorMatrix type="matrix" values="0 0 0 0 0 0 0 0 0 0 0 0 0 0 0 0 0 0 0.3 0"/>
<feBlend mode="normal" in2="effect1_dropShadow_59_523" result="effect2_dropShadow_59_523"/>
<feBlend mode="normal" in="SourceGraphic" in2="effect2_dropShadow_59_523" result="shape"/>
</filter>
<filter id="filter2_dd_59_523" x="490.345" y="437.279" width="351.497" height="463.335" filterUnits="userSpaceOnUse" color-interpolation-filters="sRGB">
<feFlood flood-opacity="0" result="BackgroundImageFix"/>
<feColorMatrix in="SourceAlpha" type="matrix" values="0 0 0 0 0 0 0 0 0 0 0 0 0 0 0 0 0 0 127 0" result="hardAlpha"/>
<feMorphology radius="4" operator="dilate" in="SourceAlpha" result="effect1_dropShadow_59_523"/>
<feOffset dy="4"/>
<feGaussianBlur stdDeviation="6"/>
<feComposite in2="hardAlpha" operator="out"/>
<feColorMatrix type="matrix" values="0 0 0 0 0 0 0 0 0 0 0 0 0 0 0 0 0 0 0.3 0"/>
<feBlend mode="normal" in2="BackgroundImageFix" result="effect1_dropShadow_59_523"/>
<feColorMatrix in="SourceAlpha" type="matrix" values="0 0 0 0 0 0 0 0 0 0 0 0 0 0 0 0 0 0 127 0" result="hardAlpha"/>
<feOffset dy="4"/>
<feGaussianBlur stdDeviation="4"/>
<feComposite in2="hardAlpha" operator="out"/>
<feColorMatrix type="matrix" values="0 0 0 0 0 0 0 0 0 0 0 0 0 0 0 0 0 0 0.6 0"/>
<feBlend mode="normal" in2="effect1_dropShadow_59_523" result="effect2_dropShadow_59_523"/>
<feBlend mode="normal" in="SourceGraphic" in2="effect2_dropShadow_59_523" result="shape"/>
</filter>
<filter id="filter3_dd_59_523" x="480.345" y="0" width="469.279" height="673.699" filterUnits="userSpaceOnUse" color-interpolation-filters="sRGB">
<feFlood flood-opacity="0" result="BackgroundImageFix"/>
<feColorMatrix in="SourceAlpha" type="matrix" values="0 0 0 0 0 0 0 0 0 0 0 0 0 0 0 0 0 0 127 0" result="hardAlpha"/>
<feOffset dy="4"/>
<feGaussianBlur stdDeviation="4"/>
<feComposite in2="hardAlpha" operator="out"/>
<feColorMatrix type="matrix" values="0 0 0 0 0 0 0 0 0 0 0 0 0 0 0 0 0 0 0.6 0"/>
<feBlend mode="normal" in2="BackgroundImageFix" result="effect1_dropShadow_59_523"/>
<feColorMatrix in="SourceAlpha" type="matrix" values="0 0 0 0 0 0 0 0 0 0 0 0 0 0 0 0 0 0 127 0" result="hardAlpha"/>
<feMorphology radius="2" operator="dilate" in="SourceAlpha" result="effect2_dropShadow_59_523"/>
<feOffset dy="8"/>
<feGaussianBlur stdDeviation="12"/>
<feComposite in2="hardAlpha" operator="out"/>
<feColorMatrix type="matrix" values="0 0 0 0 0 0 0 0 0 0 0 0 0 0 0 0 0 0 0.3 0"/>
<feBlend mode="normal" in2="effect1_dropShadow_59_523" result="effect2_dropShadow_59_523"/>
<feBlend mode="normal" in="SourceGraphic" in2="effect2_dropShadow_59_523" result="shape"/>
</filter>
<filter id="filter4_dd_59_523" x="139.772" y="6" width="351.497" height="463.335" filterUnits="userSpaceOnUse" color-interpolation-filters="sRGB">
<feFlood flood-opacity="0" result="BackgroundImageFix"/>
<feColorMatrix in="SourceAlpha" type="matrix" values="0 0 0 0 0 0 0 0 0 0 0 0 0 0 0 0 0 0 127 0" result="hardAlpha"/>
<feMorphology radius="4" operator="dilate" in="SourceAlpha" result="effect1_dropShadow_59_523"/>
<feOffset dy="4"/>
<feGaussianBlur stdDeviation="6"/>
<feComposite in2="hardAlpha" operator="out"/>
<feColorMatrix type="matrix" values="0 0 0 0 0 0 0 0 0 0 0 0 0 0 0 0 0 0 0.3 0"/>
<feBlend mode="normal" in2="BackgroundImageFix" result="effect1_dropShadow_59_523"/>
<feColorMatrix in="SourceAlpha" type="matrix" values="0 0 0 0 0 0 0 0 0 0 0 0 0 0 0 0 0 0 127 0" result="hardAlpha"/>
<feOffset dy="4"/>
<feGaussianBlur stdDeviation="4"/>
<feComposite in2="hardAlpha" operator="out"/>
<feColorMatrix type="matrix" values="0 0 0 0 0 0 0 0 0 0 0 0 0 0 0 0 0 0 0.6 0"/>
<feBlend mode="normal" in2="effect1_dropShadow_59_523" result="effect2_dropShadow_59_523"/>
<feBlend mode="normal" in="SourceGraphic" in2="effect2_dropShadow_59_523" result="shape"/>
</filter>
<filter id="filter5_dd_59_523" x="31.9899" y="240.915" width="469.279" height="673.699" filterUnits="userSpaceOnUse" color-interpolation-filters="sRGB">
<feFlood flood-opacity="0" result="BackgroundImageFix"/>
<feColorMatrix in="SourceAlpha" type="matrix" values="0 0 0 0 0 0 0 0 0 0 0 0 0 0 0 0 0 0 127 0" result="hardAlpha"/>
<feOffset dy="4"/>
<feGaussianBlur stdDeviation="4"/>
<feComposite in2="hardAlpha" operator="out"/>
<feColorMatrix type="matrix" values="0 0 0 0 0 0 0 0 0 0 0 0 0 0 0 0 0 0 0.6 0"/>
<feBlend mode="normal" in2="BackgroundImageFix" result="effect1_dropShadow_59_523"/>
<feColorMatrix in="SourceAlpha" type="matrix" values="0 0 0 0 0 0 0 0 0 0 0 0 0 0 0 0 0 0 127 0" result="hardAlpha"/>
<feMorphology radius="2" operator="dilate" in="SourceAlpha" result="effect2_dropShadow_59_523"/>
<feOffset dy="8"/>
<feGaussianBlur stdDeviation="12"/>
<feComposite in2="hardAlpha" operator="out"/>
<feColorMatrix type="matrix" values="0 0 0 0 0 0 0 0 0 0 0 0 0 0 0 0 0 0 0.3 0"/>
<feBlend mode="normal" in2="effect1_dropShadow_59_523" result="effect2_dropShadow_59_523"/>
<feBlend mode="normal" in="SourceGraphic" in2="effect2_dropShadow_59_523" result="shape"/>
</filter>
</defs>
</svg>
