<svg width="1000" height="1000" viewBox="0 0 1000 1000" fill="none" xmlns="http://www.w3.org/2000/svg">
<g filter="url(#filter0_dd_92_444)">
<path d="M350 300V280C350 180.589 430.589 100 530 100L850 100V100C850 210.457 760.457 300 650 300H350Z" fill="#512DA8"/>
</g>
<g filter="url(#filter1_dd_92_444)">
<path d="M150 300C150 189.543 239.543 100 350 100V100V700H330C230.589 700 150 619.411 150 520V300Z" fill="#7C4DFF"/>
<path fill-rule="evenodd" clip-rule="evenodd" d="M350 290.5V300H350.223C350.075 296.853 350 293.686 350 290.5ZM532.5 100C431.708 100 350 185.29 350 290.5V100H532.5ZM532.5 100H550V100.864C544.241 100.293 538.403 100 532.5 100Z" fill="#7C4DFF"/>
</g>
<g filter="url(#filter2_dd_92_444)">
<path d="M350 900C239.543 900 150 810.457 150 700V700H650C760.457 700 850 789.543 850 900V900H350Z" fill="#512DA8"/>
<path fill-rule="evenodd" clip-rule="evenodd" d="M151.037 500H150V519V700H340.5H350V699.779C346.853 699.926 343.686 700 340.5 700C235.29 700 150 618.964 150 519C150 512.583 150.351 506.244 151.037 500Z" fill="#512DA8"/>
</g>
<defs>
<filter id="filter0_dd_92_444" x="334" y="88" width="532" height="232" filterUnits="userSpaceOnUse" color-interpolation-filters="sRGB">
<feFlood flood-opacity="0" result="BackgroundImageFix"/>
<feColorMatrix in="SourceAlpha" type="matrix" values="0 0 0 0 0 0 0 0 0 0 0 0 0 0 0 0 0 0 127 0" result="hardAlpha"/>
<feMorphology radius="4" operator="dilate" in="SourceAlpha" result="effect1_dropShadow_92_444"/>
<feOffset dy="4"/>
<feGaussianBlur stdDeviation="6"/>
<feComposite in2="hardAlpha" operator="out"/>
<feColorMatrix type="matrix" values="0 0 0 0 0 0 0 0 0 0 0 0 0 0 0 0 0 0 0.3 0"/>
<feBlend mode="normal" in2="BackgroundImageFix" result="effect1_dropShadow_92_444"/>
<feColorMatrix in="SourceAlpha" type="matrix" values="0 0 0 0 0 0 0 0 0 0 0 0 0 0 0 0 0 0 127 0" result="hardAlpha"/>
<feOffset dy="4"/>
<feGaussianBlur stdDeviation="4"/>
<feComposite in2="hardAlpha" operator="out"/>
<feColorMatrix type="matrix" values="0 0 0 0 0 0 0 0 0 0 0 0 0 0 0 0 0 0 0.6 0"/>
<feBlend mode="normal" in2="effect1_dropShadow_92_444" result="effect2_dropShadow_92_444"/>
<feBlend mode="normal" in="SourceGraphic" in2="effect2_dropShadow_92_444" result="shape"/>
</filter>
<filter id="filter1_dd_92_444" x="124" y="82" width="452" height="652" filterUnits="userSpaceOnUse" color-interpolation-filters="sRGB">
<feFlood flood-opacity="0" result="BackgroundImageFix"/>
<feColorMatrix in="SourceAlpha" type="matrix" values="0 0 0 0 0 0 0 0 0 0 0 0 0 0 0 0 0 0 127 0" result="hardAlpha"/>
<feOffset dy="4"/>
<feGaussianBlur stdDeviation="4"/>
<feComposite in2="hardAlpha" operator="out"/>
<feColorMatrix type="matrix" values="0 0 0 0 0 0 0 0 0 0 0 0 0 0 0 0 0 0 0.6 0"/>
<feBlend mode="normal" in2="BackgroundImageFix" result="effect1_dropShadow_92_444"/>
<feColorMatrix in="SourceAlpha" type="matrix" values="0 0 0 0 0 0 0 0 0 0 0 0 0 0 0 0 0 0 127 0" result="hardAlpha"/>
<feMorphology radius="2" operator="dilate" in="SourceAlpha" result="effect2_dropShadow_92_444"/>
<feOffset dy="8"/>
<feGaussianBlur stdDeviation="12"/>
<feComposite in2="hardAlpha" operator="out"/>
<feColorMatrix type="matrix" values="0 0 0 0 0 0 0 0 0 0 0 0 0 0 0 0 0 0 0.3 0"/>
<feBlend mode="normal" in2="effect1_dropShadow_92_444" result="effect2_dropShadow_92_444"/>
<feBlend mode="normal" in="SourceGraphic" in2="effect2_dropShadow_92_444" result="shape"/>
</filter>
<filter id="filter2_dd_92_444" x="124" y="482" width="752" height="452" filterUnits="userSpaceOnUse" color-interpolation-filters="sRGB">
<feFlood flood-opacity="0" result="BackgroundImageFix"/>
<feColorMatrix in="SourceAlpha" type="matrix" values="0 0 0 0 0 0 0 0 0 0 0 0 0 0 0 0 0 0 127 0" result="hardAlpha"/>
<feOffset dy="4"/>
<feGaussianBlur stdDeviation="4"/>
<feComposite in2="hardAlpha" operator="out"/>
<feColorMatrix type="matrix" values="0 0 0 0 0 0 0 0 0 0 0 0 0 0 0 0 0 0 0.6 0"/>
<feBlend mode="normal" in2="BackgroundImageFix" result="effect1_dropShadow_92_444"/>
<feColorMatrix in="SourceAlpha" type="matrix" values="0 0 0 0 0 0 0 0 0 0 0 0 0 0 0 0 0 0 127 0" result="hardAlpha"/>
<feMorphology radius="2" operator="dilate" in="SourceAlpha" result="effect2_dropShadow_92_444"/>
<feOffset dy="8"/>
<feGaussianBlur stdDeviation="12"/>
<feComposite in2="hardAlpha" operator="out"/>
<feColorMatrix type="matrix" values="0 0 0 0 0 0 0 0 0 0 0 0 0 0 0 0 0 0 0.3 0"/>
<feBlend mode="normal" in2="effect1_dropShadow_92_444" result="effect2_dropShadow_92_444"/>
<feBlend mode="normal" in="SourceGraphic" in2="effect2_dropShadow_92_444" result="shape"/>
</filter>
</defs>
</svg>
